id,year
1,2001
2,1999
3,1993
4,1989
5,1992
6,2003
7,2006
8,1997
9,2008
10,2007
11,2010
12,1996
13,2004
14,1991
15,2005
16,2002
17,1995
18,1994
19,2009
20,1998
21,2011
22,1990
23,2000
24,1986
25,1984
26,1988
27,1987
